Template for indicator documentation
…
But the boot_stat object also stores the individual bootstrap values for later computation. By default, we use 999 bootstrap samples, which here results in 999 samples * 6 groups = 5994 rows of bootstrap values.

poll_richness_boot[2]

## $bootstrap_values
## # A tibble: 5,994 × 3
## # Groups:   year, region_name [6]
##     year region_name boot_values
##    <int> <chr>             <dbl>
##  1  2020 Østlandet          53.3
##  2  2020 Østlandet          60.6
##  3  2020 Østlandet          54.2
##  4  2020 Østlandet          65.5
##  5  2020 Østlandet          61  
##  6  2020 Østlandet          59.5
##  7  2020 Østlandet          60.9
##  8  2020 Østlandet          58.7
##  9  2020 Østlandet          61.5
## 10  2020 Østlandet          47.7
## # ℹ 5,984 more rows
…
1.8.4.5 Relationship between Symphyta and Parasitica in semi-natural land

symphyta_fam <- c("Argidae", "Cephidae", "Cimbicidae", 
                  "Diprionidae", "Orussidae", "Pamphiliidae", 
                  "Pergidae", "Siricidae", "Anaxyelidae",
                  "Tenthredinidae", "Xiphydriidae", "Xyelidae") 

symphyta_sn <- get_observations(subset_year = 2020:2022,
                                subset_families = symphyta_fam,
                                subset_region = NULL)

symphyta_sn

## # A tibble: 90 × 8
##     year locality habitat_type region_name no_species shannon_div mean_asv_per_species GDE_by_asv
##    <int> <chr>    <chr>        <chr>            <int>       <dbl>                <dbl>      <dbl>
##  1  2020 Skog_01  Forest       Østlandet           15       15                    1          1   
##  2  2020 Skog_02  Forest       Østlandet           42       36.8                  1.31       0.88
##  3  2020 Skog_03  Forest       Østlandet           24       21                    1.38       0.88
##  4  2020 Skog_04  Forest       Østlandet            5        4.37                 1.4        0.87
##  5  2020 Skog_05  Forest       Østlandet           23       21.6                  1.17       0.94
##  6  2020 Skog_06  Forest       Østlandet            9        8.71                 1.11       0.97
##  7  2020 Skog_07  Forest       Østlandet           25       22.5                  1.4        0.9 
##  8  2020 Skog_08  Forest       Østlandet            7        6.73                 1.14       0.96
##  9  2020 Skog_09  Forest       Østlandet           18       17.4                  1.11       0.97
## 10  2020 Skog_10  Forest       Østlandet           11        4.6                  2.64       0.42
## # ℹ 80 more rows
…
parasitica_sn <- get_observations(subset_year = 2020:2022,
                                subset_families = parasitica_fam,
                                subset_region = NULL)

parasitica_sn

## # A tibble: 90 × 8
##     year locality habitat_type region_name no_species shannon_div mean_asv_per_species GDE_by_asv
##    <int> <chr>    <chr>        <chr>            <int>       <dbl>                <dbl>      <dbl>
##  1  2020 Skog_01  Forest       Østlandet          208       187.                  1.34       0.9 
##  2  2020 Skog_02  Forest       Østlandet          508       447.                  1.39       0.88
##  3  2020 Skog_03  Forest       Østlandet          312       256.                  1.56       0.82
##  4  2020 Skog_04  Forest       Østlandet          130       121.                  1.2        0.93
##  5  2020 Skog_05  Forest       Østlandet          236       208.                  1.43       0.88
##  6  2020 Skog_06  Forest       Østlandet           99        90.3                 1.23       0.91
##  7  2020 Skog_07  Forest       Østlandet          337       284.                  1.46       0.84
##  8  2020 Skog_08  Forest       Østlandet          114       111.                  1.08       0.97
##  9  2020 Skog_09  Forest       Østlandet          168       152.                  1.27       0.9 
## 10  2020 Skog_10  Forest       Østlandet          175       161.                  1.22       0.92
## # ℹ 80 more rows
…
hGressIndVals_to_exp <- norway_reg_NBBM  %>% 
  inner_join(hGressIndVals_to_exp,
            by = c("region" = "region"),
            multiple = "all")

hGressIndVals_to_exp

## Simple feature collection with 22 features and 5 fields
## Geometry type: MULTIPOLYGON
## Dimension:     XY
## Bounding box:  xmin: -76208 ymin: 6450245 xmax: 468357.5 ymax: 7237323
## Projected CRS: ETRS89 / UTM zone 33N
## # A tibble: 22 × 6
##    region                                             geom  year ind_value ind_lower2.5 ind_upper97.5
##    <chr>                                <MULTIPOLYGON [m]> <int>     <dbl>        <dbl>         <dbl>
##  1 Sør    (((-31605 6513854, -31464 6513743, -31449 65135…  2013     0.596        0.423         0.635
##  2 Sør    (((-31605 6513854, -31464 6513743, -31449 65135…  2014     0.635        0.5           0.673
##  3 Sør    (((-31605 6513854, -31464 6513743, -31449 65135…  2015     0.519        0.385         0.558
##  4 Sør    (((-31605 6513854, -31464 6513743, -31449 65135…  2016     0.635        0.462         0.673
##  5 Sør    (((-31605 6513854, -31464 6513743, -31449 65135…  2017     0.615        0.423         0.654
##  6 Sør    (((-31605 6513854, -31464 6513743, -31449 65135…  2018     0.577        0.462         0.615
##  7 Sør    (((-31605 6513854, -31464 6513743, -31449 65135…  2019     0.519        0.422         0.558
##  8 Sør    (((-31605 6513854, -31464 6513743, -31449 65135…  2020     0.593        0.444         0.593
##  9 Sør    (((-31605 6513854, -31464 6513743, -31449 65135…  2021     0.519        0.389         0.593
## 10 Sør    (((-31605 6513854, -31464 6513743, -31449 65135…  2022     0.593        0.370         0.704
## # ℹ 12 more rows
…
sGressIndVals_to_exp <- norway_reg_NBBM  %>% 
  inner_join(sGressIndVals_to_exp,
            by = c("region" = "region"),
            multiple = "all")

sGressIndVals_to_exp

## Simple feature collection with 22 features and 5 fields
## Geometry type: MULTIPOLYGON
## Dimension:     XY
## Bounding box:  xmin: -76208 ymin: 6450245 xmax: 468357.5 ymax: 7237323
## Projected CRS: ETRS89 / UTM zone 33N
## # A tibble: 22 × 6
##    region                                             geom  year ind_value ind_lower2.5 ind_upper97.5
##    <chr>                                <MULTIPOLYGON [m]> <int>     <dbl>        <dbl>         <dbl>
##  1 Sør    (((-31605 6513854, -31464 6513743, -31449 65135…  2013     0.259        0.151         0.295
##  2 Sør    (((-31605 6513854, -31464 6513743, -31449 65135…  2014     0.374        0.273         0.424
##  3 Sør    (((-31605 6513854, -31464 6513743, -31449 65135…  2015     0.345        0.230         0.360
##  4 Sør    (((-31605 6513854, -31464 6513743, -31449 65135…  2016     0.302        0.216         0.353
##  5 Sør    (((-31605 6513854, -31464 6513743, -31449 65135…  2017     0.345        0.237         0.367
##  6 Sør    (((-31605 6513854, -31464 6513743, -31449 65135…  2018     0.309        0.201         0.345
##  7 Sør    (((-31605 6513854, -31464 6513743, -31449 65135…  2019     0.388        0.281         0.417
##  8 Sør    (((-31605 6513854, -31464 6513743, -31449 65135…  2020     0.419        0.284         0.432
##  9 Sør    (((-31605 6513854, -31464 6513743, -31449 65135…  2021     0.399        0.270         0.439
## 10 Sør    (((-31605 6513854, -31464 6513743, -31449 65135…  2022     0.358        0.25          0.399
## # ℹ 12 more rows
…
