…
#Adding the spatial sd
(
regional_means_long <- regional_sd %>%
  select(!all_of(div)) %>%
  pivot_longer(!region) %>%
  separate(name, into=c("type", "year")) %>%
  pivot_wider(names_from = type) %>%
  rename(i_sd = i,
         v_sd = v) %>%
  left_join(regional_means_long, by=join_by(region, year))
)
#> # A tibble: 330 × 15
#>    region     year   i_sd  v_sd     i     v refere…¹ refer…²
#>    <chr>      <chr> <dbl> <dbl> <dbl> <dbl>    <dbl>   <dbl>
#>  1 Nord-Norge 2022  0.246  1.90 0.523  11.5     10.2    4.21
#>  2 Nord-Norge 2021  0.255  1.65 0.672  10.8     10.2    4.21
#>  3 Nord-Norge 2020  0.143  1.82 0.784  10.3     10.2    4.21
#>  4 Nord-Norge 2019  0.290  1.77 0.623  10.8     10.2    4.21
#>  5 Nord-Norge 2018  0.344  1.64 0.523  12.5     10.2    4.21
#>  6 Nord-Norge 2017  0.145  1.79 0.794  10.1     10.2    4.21
#>  7 Nord-Norge 2016  0.175  1.74 0.705  10.8     10.2    4.21
#>  8 Nord-Norge 2015  0.198  1.61 0.682  10.6     10.2    4.21
#>  9 Nord-Norge 2014  0.297  1.65 0.545  13.1     10.2    4.21
#> 10 Nord-Norge 2013  0.202  1.65 0.479  11.4     10.2    4.21
#> # … with 320 more rows, 7 more variables:
#> #   reference_low2 <dbl>, threshold_low <dbl>,
#> #   threshold_high <dbl>, sd <dbl>, diff <dbl>,
#> #   threshold_low_centered <dbl>,
#> #   threshold_high_centered <dbl>, and abbreviated variable
#> #   names ¹​reference_upper, ²​reference_low
```
…
   period == "2003-2007" ~ 2,
    .default = 1
  )) %>%
  group_by(region, period, period_rank) %>%
  summarise(indicator = mean(i),
            spatial_sd = sqrt(sum(i_sd^2))/length(i_sd)
            #,
            #spatial_sd_mean = mean(i_sd),
            #spatial_sd2_max = max(i_sd),
            #spatial_sd2_length = length(i_sd)
            )
)
#> `summarise()` has grouped output by 'region', 'period'. You
#> can override using the `.groups` argument.
#> # A tibble: 25 × 5
#> # Groups:   region, period [25]
#>    region     period    period_rank indicator spatial_sd
#>    <chr>      <chr>           <dbl>     <dbl>      <dbl>
#>  1 Midt-Norge 2003-2007           2     0.427     0.101 
#>  2 Midt-Norge 2008-2012           3     0.573     0.143 
#>  3 Midt-Norge 2013-2017           4     0.536     0.0986
#>  4 Midt-Norge 2018-2022           5     0.607     0.130 
#>  5 Midt-Norge pre 2003            1     0.642     0.0277
#>  6 Nord-Norge 2003-2007           2     0.460     0.122 
#>  7 Nord-Norge 2008-2012           3     0.675     0.109 
#>  8 Nord-Norge 2013-2017           4     0.641     0.0937
#>  9 Nord-Norge 2018-2022           5     0.625     0.118 
#> 10 Nord-Norge pre 2003            1     0.625     0.0266
#> # … with 15 more rows
```
…
