Chapter 10 Insect indicators | Indicators for Ecosystem Condition in Norway
…
But the boot_stat object also stores the individual bootstrap values for later computation. By default, we use 999 bootstrap samples, which here results in 999 samples * 6 groups = 5994 rows of bootstrap values.

poll_richness_boot[2]
#> $bootstrap_values
#> # A tibble: 5,994 × 3
#> # Groups:   year, region_name [6]
#>     year region_name boot_values
#>    <int> <chr>             <dbl>
#>  1  2020 Østlandet          57  
#>  2  2020 Østlandet          61.1
#>  3  2020 Østlandet          62.4
#>  4  2020 Østlandet          64  
#>  5  2020 Østlandet          61.7
#>  6  2020 Østlandet          59.3
#>  7  2020 Østlandet          53.9
#>  8  2020 Østlandet          63  
#>  9  2020 Østlandet          69  
#> 10  2020 Østlandet          59.5
#> # … with 5,984 more rows
…
10.8.4.5 Relationship between Symphyta and Parasitica in semi-natural land

symphyta_fam <- c("Argidae", "Cephidae", "Cimbicidae", 
                  "Diprionidae", "Orussidae", "Pamphiliidae", 
                  "Pergidae", "Siricidae", "Anaxyelidae",
                  "Tenthredinidae", "Xiphydriidae", "Xyelidae") 

symphyta_sn <- get_observations(subset_year = 2020:2022,
                                subset_families = symphyta_fam,
                                subset_region = NULL)

symphyta_sn
#> # A tibble: 90 × 8
#>     year locality habitat_…¹ regio…² no_sp…³ shann…⁴ mean_…⁵
#>    <int> <chr>    <chr>      <chr>     <int>   <dbl>   <dbl>
#>  1  2020 Skog_01  Forest     Østlan…      15   15       1   
#>  2  2020 Skog_02  Forest     Østlan…      42   36.8     1.31
#>  3  2020 Skog_03  Forest     Østlan…      24   21       1.38
#>  4  2020 Skog_04  Forest     Østlan…       5    4.37    1.4 
#>  5  2020 Skog_05  Forest     Østlan…      23   21.6     1.17
#>  6  2020 Skog_06  Forest     Østlan…       9    8.71    1.11
#>  7  2020 Skog_07  Forest     Østlan…      25   22.5     1.4 
#>  8  2020 Skog_08  Forest     Østlan…       7    6.73    1.14
#>  9  2020 Skog_09  Forest     Østlan…      18   17.4     1.11
#> 10  2020 Skog_10  Forest     Østlan…      11    4.6     2.64
#> # … with 80 more rows, 1 more variable: GDE_by_asv <dbl>,
#> #   and abbreviated variable names ¹​habitat_type,
#> #   ²​region_name, ³​no_species, ⁴​shannon_div,
#> #   ⁵​mean_asv_per_species
…
parasitica_sn <- get_observations(subset_year = 2020:2022,
                                subset_families = parasitica_fam,
                                subset_region = NULL)

parasitica_sn
#> # A tibble: 90 × 8
#>     year locality habitat_…¹ regio…² no_sp…³ shann…⁴ mean_…⁵
#>    <int> <chr>    <chr>      <chr>     <int>   <dbl>   <dbl>
#>  1  2020 Skog_01  Forest     Østlan…     208   187.     1.34
#>  2  2020 Skog_02  Forest     Østlan…     508   447.     1.39
#>  3  2020 Skog_03  Forest     Østlan…     312   256.     1.56
#>  4  2020 Skog_04  Forest     Østlan…     130   121.     1.2 
#>  5  2020 Skog_05  Forest     Østlan…     236   208.     1.43
#>  6  2020 Skog_06  Forest     Østlan…      99    90.3    1.23
#>  7  2020 Skog_07  Forest     Østlan…     337   284.     1.46
#>  8  2020 Skog_08  Forest     Østlan…     114   111.     1.08
#>  9  2020 Skog_09  Forest     Østlan…     168   152.     1.27
#> 10  2020 Skog_10  Forest     Østlan…     175   161.     1.22
#> # … with 80 more rows, 1 more variable: GDE_by_asv <dbl>,
#> #   and abbreviated variable names ¹​habitat_type,
#> #   ²​region_name, ³​no_species, ⁴​shannon_div,
#> #   ⁵​mean_asv_per_species
…
hGressIndVals_to_exp <- norway_reg_NBBM  %>% 
  inner_join(hGressIndVals_to_exp,
            by = c("region" = "region"),
            multiple = "all")

hGressIndVals_to_exp
#> Simple feature collection with 36 features and 5 fields
#> Geometry type: MULTIPOLYGON
#> Dimension:     XY
#> Bounding box:  xmin: -76208 ymin: 6450245 xmax: 468357.5 ymax: 7237323
#> Projected CRS: ETRS89 / UTM zone 33N
#> # A tibble: 36 × 6
#>    region                         geom  year ind_v…¹ ind_l…²
#>    <chr>            <MULTIPOLYGON [m]> <int>   <dbl>   <dbl>
#>  1 Sør    (((-31605 6513854, -31464 6…  2013   0.596   0.423
#>  2 Sør    (((-31605 6513854, -31464 6…  2014   0.635   0.5  
#>  3 Sør    (((-31605 6513854, -31464 6…  2015   0.519   0.385
#>  4 Sør    (((-31605 6513854, -31464 6…  2016   0.635   0.462
#>  5 Sør    (((-31605 6513854, -31464 6…  2017   0.615   0.423
#>  6 Sør    (((-31605 6513854, -31464 6…  2018   0.577   0.462
#>  7 Sør    (((-31605 6513854, -31464 6…  2019   0.519   0.422
#>  8 Sør    (((-31605 6513854, -31464 6…  2020   0.593   0.444
#>  9 Sør    (((-31605 6513854, -31464 6…  2021   0.519   0.389
#> 10 Sør    (((-31605 6513854, -31464 6…  2022   0.593   0.370
#> # … with 26 more rows, 1 more variable:
#> #   ind_upper97.5 <dbl>, and abbreviated variable names
#> #   ¹​ind_value, ²​ind_lower2.5
…
sGressIndVals_to_exp <- norway_reg_NBBM  %>% 
  inner_join(sGressIndVals_to_exp,
            by = c("region" = "region"),
            multiple = "all")

sGressIndVals_to_exp
#> Simple feature collection with 36 features and 5 fields
#> Geometry type: MULTIPOLYGON
#> Dimension:     XY
#> Bounding box:  xmin: -76208 ymin: 6450245 xmax: 468357.5 ymax: 7237323
#> Projected CRS: ETRS89 / UTM zone 33N
#> # A tibble: 36 × 6
#>    region                         geom  year ind_v…¹ ind_l…²
#>    <chr>            <MULTIPOLYGON [m]> <int>   <dbl>   <dbl>
#>  1 Sør    (((-31605 6513854, -31464 6…  2013   0.259   0.151
#>  2 Sør    (((-31605 6513854, -31464 6…  2014   0.374   0.273
#>  3 Sør    (((-31605 6513854, -31464 6…  2015   0.345   0.230
#>  4 Sør    (((-31605 6513854, -31464 6…  2016   0.302   0.216
#>  5 Sør    (((-31605 6513854, -31464 6…  2017   0.345   0.237
#>  6 Sør    (((-31605 6513854, -31464 6…  2018   0.309   0.201
#>  7 Sør    (((-31605 6513854, -31464 6…  2019   0.388   0.281
#>  8 Sør    (((-31605 6513854, -31464 6…  2020   0.419   0.284
#>  9 Sør    (((-31605 6513854, -31464 6…  2021   0.399   0.270
#> 10 Sør    (((-31605 6513854, -31464 6…  2022   0.358   0.25 
#> # … with 26 more rows, 1 more variable:
#> #   ind_upper97.5 <dbl>, and abbreviated variable names
#> #   ¹​ind_value, ²​ind_lower2.5
…
