…
But the `boot_stat` object also stores the individual bootstrap values for later computation. By default, we use 999 bootstrap samples, which here results in 999 samples * 6 groups = 5994 rows of bootstrap values.


```r
poll_richness_boot[2]
#> $bootstrap_values
#> # A tibble: 5,994 × 3
#> # Groups:   year, region_name [6]
#>     year region_name boot_values
#>    <int> <chr>             <dbl>
#>  1  2020 Østlandet          63.5
#>  2  2020 Østlandet          50.5
#>  3  2020 Østlandet          49.9
#>  4  2020 Østlandet          65.8
#>  5  2020 Østlandet          62.2
#>  6  2020 Østlandet          53.6
#>  7  2020 Østlandet          61.6
#>  8  2020 Østlandet          62.7
#>  9  2020 Østlandet          68.8
#> 10  2020 Østlandet          64.3
#> # ℹ 5,984 more rows
```
…
```r
symphyta_fam <- c("Argidae", "Cephidae", "Cimbicidae", 
                  "Diprionidae", "Orussidae", "Pamphiliidae", 
                  "Pergidae", "Siricidae", "Anaxyelidae",
                  "Tenthredinidae", "Xiphydriidae", "Xyelidae") 

symphyta_sn <- get_observations(subset_year = 2020:2022,
                                subset_families = symphyta_fam,
                                subset_habitat = "Semi-nat")

symphyta_sn
#> # A tibble: 60 × 8
#>     year locality    habitat_type region_name no_species
#>    <int> <chr>       <chr>        <chr>            <int>
#>  1  2020 Semi-nat_01 Semi-nat     Østlandet           38
#>  2  2020 Semi-nat_02 Semi-nat     Østlandet           16
#>  3  2020 Semi-nat_03 Semi-nat     Østlandet           13
#>  4  2020 Semi-nat_04 Semi-nat     Østlandet           39
#>  5  2020 Semi-nat_05 Semi-nat     Østlandet           65
#>  6  2020 Semi-nat_06 Semi-nat     Østlandet           22
#>  7  2020 Semi-nat_07 Semi-nat     Østlandet           36
#>  8  2020 Semi-nat_08 Semi-nat     Østlandet           46
#>  9  2020 Semi-nat_09 Semi-nat     Østlandet           21
#> 10  2020 Semi-nat_10 Semi-nat     Østlandet           68
#> # ℹ 50 more rows
#> # ℹ 3 more variables: shannon_div <dbl>,
#> #   mean_no_asv_per_species <dbl>, GDE_by_asv <dbl>
```
…
parasitica_sn <- get_observations(subset_year = 2020:2022,
                                subset_families = parasitica_fam,
                                subset_habitat = "Semi-nat")

parasitica_sn
#> # A tibble: 60 × 8
#>     year locality    habitat_type region_name no_species
#>    <int> <chr>       <chr>        <chr>            <int>
#>  1  2020 Semi-nat_01 Semi-nat     Østlandet          480
#>  2  2020 Semi-nat_02 Semi-nat     Østlandet          112
#>  3  2020 Semi-nat_03 Semi-nat     Østlandet          119
#>  4  2020 Semi-nat_04 Semi-nat     Østlandet          369
#>  5  2020 Semi-nat_05 Semi-nat     Østlandet          642
#>  6  2020 Semi-nat_06 Semi-nat     Østlandet          190
#>  7  2020 Semi-nat_07 Semi-nat     Østlandet          253
#>  8  2020 Semi-nat_08 Semi-nat     Østlandet          323
#>  9  2020 Semi-nat_09 Semi-nat     Østlandet          216
#> 10  2020 Semi-nat_10 Semi-nat     Østlandet          531
#> # ℹ 50 more rows
#> # ℹ 3 more variables: shannon_div <dbl>,
#> #   mean_no_asv_per_species <dbl>, GDE_by_asv <dbl>
```
…
```r
alien_obs_yl
#> # A tibble: 900 × 8
#>    yl_id      locality  year region_name risikokategori_2023
#>    <chr>      <chr>    <int> <chr>       <chr>              
#>  1 a3f86975-… Semi-na…  2020 Østlandet   LO                 
#>  2 a3f86975-… Semi-na…  2020 Østlandet   PH                 
#>  3 a3f86975-… Semi-na…  2020 Østlandet   LO                 
#>  4 a3f86975-… Semi-na…  2020 Østlandet   LO                 
#>  5 a3f86975-… Semi-na…  2020 Østlandet   PH                 
#>  6 a3f86975-… Semi-na…  2020 Østlandet   LO                 
#>  7 a3f86975-… Semi-na…  2020 Østlandet   LO                 
#>  8 a3f86975-… Semi-na…  2020 Østlandet   LO                 
#>  9 a3f86975-… Semi-na…  2020 Østlandet   LO                 
#> 10 a3f86975-… Semi-na…  2020 Østlandet   SE                 
#> # ℹ 890 more rows
#> # ℹ 3 more variables: species_latin_fixed <chr>,
#> #   present <lgl>, na.rm <lgl>
```
…
The `gdm` contains the mean genetic diversity for the species found in every year locality combination. This is calculated after first filtering on species that is found at least 3 times.

The `gdm` object contains the year_locality_ids as a key, which we can join to the relevant metadata, e.g. through the alien observation object used above.



```r
gdm_sn <- alien_obs_yl  %>% 
  ungroup() %>% 
  select(yl_id, locality, year, region_name) %>% 
  distinct() %>% 
  inner_join(gdm, by = c("yl_id"= "year_locality_id"))

gdm_sn
#> # A tibble: 60 × 5
#>    yl_id                  locality  year region_name     GDM
#>    <chr>                  <chr>    <int> <chr>         <dbl>
#>  1 a3f86975-b0c2-4200-98… Semi-na…  2020 Østlandet   0.00723
#>  2 11b4435f-8cc9-4ba2-9d… Semi-na…  2020 Østlandet   0.00947
#>  3 0b2956ca-3449-47b8-b9… Semi-na…  2020 Østlandet   0.00883
#>  4 f0412a3b-7864-472d-a8… Semi-na…  2020 Østlandet   0.00618
#>  5 b462682b-d037-43fd-b1… Semi-na…  2020 Østlandet   0.00973
#>  6 c76f63db-56a2-47c4-b2… Semi-na…  2020 Østlandet   0.00950
#>  7 0256d2aa-07f1-45ce-a3… Semi-na…  2020 Østlandet   0.00613
#>  8 271cb773-e404-46a7-a7… Semi-na…  2020 Østlandet   0.00999
#>  9 9768a7ca-0bc8-43bf-94… Semi-na…  2020 Østlandet   0.0111 
#> 10 6a19c4e6-8226-432c-94… Semi-na…  2020 Østlandet   0.00840
#> # ℹ 50 more rows
```
…
