Chapter 2 Median Summer Temperature | Indicators for Ecosystem Condition in Norway
…
   period == "2013-2017" ~ 4,
   period == "2008-2012" ~ 3,
   period == "2003-2007" ~ 2,
    .default = 1
  )) %>%
  group_by(region, period, period_rank) %>%
  summarise(indicator = mean(i),
            sd = sd(i)
            # If I inluded a spatial measure for the uncertainty, here is how I would carry the errors:
            #spatial_sd = sqrt(sum(i_sd^2))/length(i_sd)
            )
)
#> `summarise()` has grouped output by 'region', 'period'. You
#> can override using the `.groups` argument.
#> # A tibble: 25 × 5
#> # Groups:   region, period [25]
#>    region     period    period_rank indicator     sd
#>    <chr>      <chr>           <dbl>     <dbl>  <dbl>
#>  1 Midt-Norge 2003-2007           2     0.427 0.139 
#>  2 Midt-Norge 2008-2012           3     0.573 0.0992
#>  3 Midt-Norge 2013-2017           4     0.536 0.212 
#>  4 Midt-Norge 2018-2022           5     0.607 0.179 
#>  5 Midt-Norge pre 2003            1     0.642 0.182 
#>  6 Nord-Norge 2003-2007           2     0.460 0.149 
#>  7 Nord-Norge 2008-2012           3     0.675 0.0602
#>  8 Nord-Norge 2013-2017           4     0.641 0.127 
#>  9 Nord-Norge 2018-2022           5     0.625 0.110 
#> 10 Nord-Norge pre 2003            1     0.625 0.194 
#> # ℹ 15 more rows
…
